<?xml version="1.0" standalone="no"?>
<!DOCTYPE svg PUBLIC "-//W3C//DTD SVG 20010904//EN"
 "http://www.w3.org/TR/2001/REC-SVG-20010904/DTD/svg10.dtd">
<svg version="1.0" xmlns="http://www.w3.org/2000/svg"
 width="1029.000000pt" height="153.000000pt" viewBox="0 0 1029.000000 153.000000"
 preserveAspectRatio="xMidYMid meet">
<metadata>
Created by potrace 1.13, written by Peter Selinger 2001-2015
</metadata>
<g transform="translate(0.000000,153.000000) scale(0.100000,-0.100000)"
fill="#000000" stroke="none">
<path d="M9312 777 l0 -753 144 -1 144 0 0 146 c1 140 2 147 25 173 13 16 28
28 32 28 5 0 55 -56 112 -124 56 -69 112 -135 123 -148 11 -13 29 -34 40 -48
20 -25 21 -25 188 -26 l169 -1 -29 36 c-15 20 -37 45 -47 56 -10 11 -43 49
-73 85 -30 36 -67 78 -81 95 -100 113 -199 231 -199 236 0 4 127 138 306 320
l45 45 -176 0 -176 -1 -47 -50 c-26 -28 -84 -91 -129 -140 l-83 -89 0 457 0
457 -144 0 -144 0 0 -753z"/>
<path d="M7129 1454 c-237 -45 -454 -221 -544 -442 -75 -184 -70 -405 12 -580
99 -213 287 -363 522 -416 93 -22 275 -15 366 14 249 78 429 260 506 510 32
103 32 271 1 383 -65 231 -227 410 -451 496 -130 50 -270 62 -412 35z m293
-303 c102 -36 202 -121 249 -213 149 -291 -55 -634 -381 -642 -170 -5 -322 77
-405 218 -76 131 -76 310 1 442 106 180 339 265 536 195z"/>
<path d="M745 1442 c-13 -2 -29 -23 -47 -60 -15 -31 -74 -147 -131 -257 -114
-220 -256 -495 -410 -795 -55 -107 -113 -219 -128 -248 -15 -29 -24 -54 -20
-56 3 -2 75 -3 160 -2 l153 1 52 100 c29 55 112 217 186 360 73 143 149 289
168 325 18 36 79 166 134 290 55 124 111 249 125 279 13 29 21 56 19 59 -6 5
-228 9 -261 4z"/>
<path d="M3100 1442 c-21 -2 -36 -24 -96 -140 -39 -75 -119 -231 -179 -347
-59 -116 -136 -264 -170 -330 -169 -328 -305 -593 -305 -597 0 -10 309 -3 319
7 5 6 27 44 49 85 53 103 214 414 307 595 42 83 80 154 84 158 5 4 20 -18 34
-50 14 -32 56 -122 93 -198 36 -77 90 -189 118 -250 29 -60 78 -164 110 -231
l58 -120 158 0 c156 -1 158 0 150 20 -4 12 -42 91 -83 177 -124 257 -207 430
-240 499 -16 36 -95 200 -173 364 -79 165 -149 312 -156 327 -12 28 -34 36
-78 31z"/>
<path d="M5693 1437 c-3 -5 -7 -1314 -4 -1397 1 -13 53 -15 411 -15 l410 0 0
143 0 142 -268 0 -267 0 0 565 c0 373 -3 565 -10 566 -61 5 -268 2 -272 -4z"/>
<path d="M5008 1058 l-3 -162 -89 -1 -90 0 1 -107 c1 -60 2 -112 2 -118 1 -6
38 -10 91 -10 l90 0 0 -319 0 -319 130 1 130 1 0 26 c1 14 1 157 1 318 l1 292
103 0 103 0 0 103 c0 56 -2 109 -4 118 -4 14 -19 17 -82 17 -133 0 -120 -7
-120 70 0 37 0 109 -1 160 l-1 92 -130 0 -130 0 -2 -162z"/>
<path d="M8668 925 c-2 -2 -28 -5 -59 -8 -225 -24 -402 -210 -414 -434 -11
-201 118 -387 320 -457 66 -24 223 -29 292 -11 350 94 476 489 240 750 -56 62
-138 113 -222 136 -57 15 -150 30 -157 24z m108 -249 c50 -23 86 -61 117 -122
21 -41 17 -157 -6 -201 -92 -173 -322 -169 -413 7 -26 50 -24 153 3 206 26 50
93 111 130 120 16 3 33 7 38 9 30 10 86 2 131 -19z"/>
<path d="M4410 906 c-64 -18 -111 -42 -148 -76 l-33 -29 -9 24 c-31 80 -19 73
-122 70 -51 -1 -96 -3 -99 -4 -3 0 -5 -196 -5 -433 l1 -433 128 -1 127 -1 0
246 c0 219 2 250 19 288 40 88 128 139 223 131 29 -3 60 -8 69 -12 12 -5 26
15 62 96 26 57 47 108 47 114 0 7 -8 15 -17 19 -32 13 -197 13 -243 1z"/>
<path d="M1019 301 c-4 -18 -6 -248 -3 -261 3 -13 57 -15 411 -15 l408 0 0
140 0 140 -407 1 c-225 0 -409 -2 -409 -5z"/>
</g>
</svg>
